%!PS-Adobe-3.0 EPSF-3.0
%%Title: sage-plots-for-report.tex/plot-0.eps
%%Creator: matplotlib version 1.3.1, http://matplotlib.org/
%%CreationDate: Sat Nov  1 22:50:36 2014
%%Orientation: portrait
%%BoundingBox: 23 185 588 606
%%EndComments
%%BeginProlog
/mpldict 8 dict def
mpldict begin
/m { moveto } bind def
/l { lineto } bind def
/r { rlineto } bind def
/c { curveto } bind def
/cl { closepath } bind def
/box {
m
1 index 0 r
0 exch r
neg 0 r
cl
} bind def
/clipbox {
box
clip
newpath
} bind def
%!PS-Adobe-3.0 Resource-Font
%%Title: Bitstream Vera Sans
%%Copyright: Copyright (c) 2003 by Bitstream, Inc. All Rights Reserved.
%%Creator: Converted from TrueType to type 3 by PPR
25 dict begin
/_d{bind def}bind def
/_m{moveto}_d
/_l{lineto}_d
/_cl{closepath eofill}_d
/_c{curveto}_d
/_sc{7 -1 roll{setcachedevice}{pop pop pop pop pop pop}ifelse}_d
/_e{exec}_d
/FontName /BitstreamVeraSans-Roman def
/PaintType 0 def
/FontMatrix[.001 0 0 .001 0 0]def
/FontBBox[-183 -236 1287 928]def
/FontType 3 def
/Encoding [ /hyphen /period /zero /one /two /five ] def
/FontInfo 10 dict dup begin
/FamilyName (Bitstream Vera Sans) def
/FullName (Bitstream Vera Sans) def
/Notice (Copyright (c) 2003 by Bitstream, Inc. All Rights Reserved. Bitstream Vera is a trademark of Bitstream, Inc.) def
/Weight (Roman) def
/Version (Release 1.10) def
/ItalicAngle 0.0 def
/isFixedPitch false def
/UnderlinePosition -213 def
/UnderlineThickness 143 def
end readonly def
/CharStrings 6 dict dup begin
/hyphen{361 0 49 234 312 314 _sc
49 314 _m
312 314 _l
312 234 _l
49 234 _l
49 314 _l
_cl}_d
/period{318 0 107 0 210 124 _sc
107 124 _m
210 124 _l
210 0 _l
107 0 _l
107 124 _l
_cl}_d
/zero{636 0 66 -13 570 742 _sc
318 664 _m
267 664 229 639 203 589 _c
177 539 165 464 165 364 _c
165 264 177 189 203 139 _c
229 89 267 64 318 64 _c
369 64 407 89 433 139 _c
458 189 471 264 471 364 _c
471 464 458 539 433 589 _c
407 639 369 664 318 664 _c
318 742 _m
399 742 461 709 505 645 _c
548 580 570 486 570 364 _c
570 241 548 147 505 83 _c
461 19 399 -13 318 -13 _c
236 -13 173 19 130 83 _c
87 147 66 241 66 364 _c
66 486 87 580 130 645 _c
173 709 236 742 318 742 _c
_cl}_d
/one{636 0 110 0 544 729 _sc
124 83 _m
285 83 _l
285 639 _l
110 604 _l
110 694 _l
284 729 _l
383 729 _l
383 83 _l
544 83 _l
544 0 _l
124 0 _l
124 83 _l
_cl}_d
/two{{636 0 73 0 536 742 _sc
192 83 _m
536 83 _l
536 0 _l
73 0 _l
73 83 _l
110 121 161 173 226 239 _c
290 304 331 346 348 365 _c
380 400 402 430 414 455 _c
426 479 433 504 433 528 _c
433 566 419 598 392 622 _c
365 646 330 659 286 659 _c
255 659 222 653 188 643 _c
154 632 117 616 78 594 _c
78 694 _l
118 710 155 722 189 730 _c
223 738 255 742 284 742 _c
}_e{359 742 419 723 464 685 _c
509 647 532 597 532 534 _c
532 504 526 475 515 449 _c
504 422 484 390 454 354 _c
446 344 420 317 376 272 _c
332 227 271 164 192 83 _c
_cl}_e}_d
/five{{636 0 77 -13 549 729 _sc
108 729 _m
495 729 _l
495 646 _l
198 646 _l
198 467 _l
212 472 227 476 241 478 _c
255 480 270 482 284 482 _c
365 482 429 459 477 415 _c
525 370 549 310 549 234 _c
549 155 524 94 475 51 _c
426 8 357 -13 269 -13 _c
238 -13 207 -10 175 -6 _c
143 -1 111 6 77 17 _c
77 116 _l
106 100 136 88 168 80 _c
199 72 232 69 267 69 _c
}_e{323 69 368 83 401 113 _c
433 143 450 183 450 234 _c
450 284 433 324 401 354 _c
368 384 323 399 267 399 _c
241 399 214 396 188 390 _c
162 384 135 375 108 363 _c
108 729 _l
_cl}_e}_d
end readonly def

/BuildGlyph
 {exch begin
 CharStrings exch
 2 copy known not{pop /.notdef}if
 true 3 1 roll get exec
 end}_d

/BuildChar {
 1 index /Encoding get exch get
 1 index /BuildGlyph get exec
}_d

FontName currentdict end definefont pop
end
%%EndProlog
mpldict begin
23.76 185.893 translate
564.48 420.214 0 0 clipbox
gsave
0 0 m
564.48 0 l
564.48 420.214 l
0 420.214 l
cl
1.000 setgray
fill
grestore
gsave
7.2 7.2 m
557.28 7.2 l
557.28 412.28 l
7.2 412.28 l
cl
1.000 setgray
fill
grestore
1.000 setlinewidth
1 setlinejoin
2 setlinecap
[] 0 setdash
0.000 0.000 1.000 setrgbcolor
gsave
550.1 405.1 7.2 7.2 clipbox
17.7785 38.4264 m
34.0575 33.3992 l
46.7845 29.6856 l
59.4334 26.2531 l
71.466 23.2882 l
80.4652 21.2987 l
90.22 19.3957 l
98.6597 17.9871 l
105.541 17.0182 l
112.535 16.2121 l
121.83 15.4409 l
129.169 15.0919 l
136.963 14.99 l
142.464 15.0939 l
150.306 15.5068 l
158.203 16.2526 l
165.718 17.2855 l
170.939 18.1962 l
179.118 19.9533 l
184.06 21.2166 l
191.72 23.4852 l
198.456 25.8007 l
202.75 27.4367 l
210.114 30.54 l
215.863 33.2284 l
221.032 35.8483 l
225.668 38.3636 l
233.067 42.7057 l
240.406 47.4153 l
246.692 51.7725 l
253.634 56.9327 l
260.437 62.3453 l
266.379 67.3611 l
273.576 73.7964 l
281.192 81.0328 l
286.072 85.8968 l
293.091 93.2031 l
300.678 101.501 l
307.78 109.64 l
315.019 118.293 l
321.942 126.892 l
327.975 134.635 l
336.266 145.635 l
344.264 156.616 l
353.235 169.328 l
362.65 183.069 l
373.796 199.787 l
388.396 222.239 l
409.732 255.62 l
426.415 281.592 l
438.565 300.083 l
447.702 313.588 l
455.37 324.568 l
462.906 334.976 l
470.569 345.102 l
476.857 353.017 l
483.684 361.158 l
489.071 367.214 l
494.006 372.455 l
498.913 377.353 l
504.24 382.292 l
509.435 386.707 l
513.836 390.117 l
517.827 392.936 l
522.628 395.963 l
526.121 397.906 l
530.263 399.914 l
533.099 401.099 l
536.294 402.242 l
539.923 403.287 l
543.68 404.077 l
546.702 404.49 l
546.702 404.49 l
stroke
grestore
0.500 setlinewidth
0 setlinecap
0.000 setgray
gsave
/o {
gsave
newpath
translate
0.5 setlinewidth
1 setlinejoin
0 setlinecap
0 0 m
0 4 l
gsave
0.000 setgray
fill
grestore
stroke
grestore
} bind def
17.7785 82.0622 o
grestore
/BitstreamVeraSans-Roman findfont
10.000 scalefont
setfont
gsave
13.497212 70.468444 translate
0.000000 rotate
0.000000 0.000000 m /hyphen glyphshow
3.608398 0.000000 m /one glyphshow
grestore
gsave
/o {
gsave
newpath
translate
0.5 setlinewidth
1 setlinejoin
0 setlinecap
0 0 m
0 4 l
gsave
0.000 setgray
fill
grestore
stroke
grestore
} bind def
150.009 82.0622 o
grestore
gsave
140.931106 70.468444 translate
0.000000 rotate
0.000000 0.000000 m /hyphen glyphshow
3.608398 0.000000 m /zero glyphshow
9.970703 0.000000 m /period glyphshow
13.149414 0.000000 m /five glyphshow
grestore
gsave
/o {
gsave
newpath
translate
0.5 setlinewidth
1 setlinejoin
0 setlinecap
0 0 m
0 4 l
gsave
0.000 setgray
fill
grestore
stroke
grestore
} bind def
282.24 82.0622 o
grestore
gsave
/o {
gsave
newpath
translate
0.5 setlinewidth
1 setlinejoin
0 setlinecap
0 0 m
0 4 l
gsave
0.000 setgray
fill
grestore
stroke
grestore
} bind def
414.471 82.0622 o
grestore
gsave
407.283269 70.468444 translate
0.000000 rotate
0.000000 0.000000 m /zero glyphshow
6.362305 0.000000 m /period glyphshow
9.541016 0.000000 m /five glyphshow
grestore
gsave
/o {
gsave
newpath
translate
0.5 setlinewidth
1 setlinejoin
0 setlinecap
0 0 m
0 4 l
gsave
0.000 setgray
fill
grestore
stroke
grestore
} bind def
546.702 82.0622 o
grestore
gsave
544.529663 70.468444 translate
0.000000 rotate
0.000000 0.000000 m /one glyphshow
grestore
gsave
/o {
gsave
newpath
translate
0.5 setlinewidth
1 setlinejoin
0 setlinecap
0 0 m
0 2 l
gsave
0.000 setgray
fill
grestore
stroke
grestore
} bind def
44.2246 82.0622 o
grestore
gsave
/o {
gsave
newpath
translate
0.5 setlinewidth
1 setlinejoin
0 setlinecap
0 0 m
0 2 l
gsave
0.000 setgray
fill
grestore
stroke
grestore
} bind def
70.6708 82.0622 o
grestore
gsave
/o {
gsave
newpath
translate
0.5 setlinewidth
1 setlinejoin
0 setlinecap
0 0 m
0 2 l
gsave
0.000 setgray
fill
grestore
stroke
grestore
} bind def
97.1169 82.0622 o
grestore
gsave
/o {
gsave
newpath
translate
0.5 setlinewidth
1 setlinejoin
0 setlinecap
0 0 m
0 2 l
gsave
0.000 setgray
fill
grestore
stroke
grestore
} bind def
123.563 82.0622 o
grestore
gsave
/o {
gsave
newpath
translate
0.5 setlinewidth
1 setlinejoin
0 setlinecap
0 0 m
0 2 l
gsave
0.000 setgray
fill
grestore
stroke
grestore
} bind def
150.009 82.0622 o
grestore
gsave
/o {
gsave
newpath
translate
0.5 setlinewidth
1 setlinejoin
0 setlinecap
0 0 m
0 2 l
gsave
0.000 setgray
fill
grestore
stroke
grestore
} bind def
176.455 82.0622 o
grestore
gsave
/o {
gsave
newpath
translate
0.5 setlinewidth
1 setlinejoin
0 setlinecap
0 0 m
0 2 l
gsave
0.000 setgray
fill
grestore
stroke
grestore
} bind def
202.902 82.0622 o
grestore
gsave
/o {
gsave
newpath
translate
0.5 setlinewidth
1 setlinejoin
0 setlinecap
0 0 m
0 2 l
gsave
0.000 setgray
fill
grestore
stroke
grestore
} bind def
229.348 82.0622 o
grestore
gsave
/o {
gsave
newpath
translate
0.5 setlinewidth
1 setlinejoin
0 setlinecap
0 0 m
0 2 l
gsave
0.000 setgray
fill
grestore
stroke
grestore
} bind def
255.794 82.0622 o
grestore
gsave
/o {
gsave
newpath
translate
0.5 setlinewidth
1 setlinejoin
0 setlinecap
0 0 m
0 2 l
gsave
0.000 setgray
fill
grestore
stroke
grestore
} bind def
282.24 82.0622 o
grestore
gsave
/o {
gsave
newpath
translate
0.5 setlinewidth
1 setlinejoin
0 setlinecap
0 0 m
0 2 l
gsave
0.000 setgray
fill
grestore
stroke
grestore
} bind def
308.686 82.0622 o
grestore
gsave
/o {
gsave
newpath
translate
0.5 setlinewidth
1 setlinejoin
0 setlinecap
0 0 m
0 2 l
gsave
0.000 setgray
fill
grestore
stroke
grestore
} bind def
335.132 82.0622 o
grestore
gsave
/o {
gsave
newpath
translate
0.5 setlinewidth
1 setlinejoin
0 setlinecap
0 0 m
0 2 l
gsave
0.000 setgray
fill
grestore
stroke
grestore
} bind def
361.578 82.0622 o
grestore
gsave
/o {
gsave
newpath
translate
0.5 setlinewidth
1 setlinejoin
0 setlinecap
0 0 m
0 2 l
gsave
0.000 setgray
fill
grestore
stroke
grestore
} bind def
388.025 82.0622 o
grestore
gsave
/o {
gsave
newpath
translate
0.5 setlinewidth
1 setlinejoin
0 setlinecap
0 0 m
0 2 l
gsave
0.000 setgray
fill
grestore
stroke
grestore
} bind def
414.471 82.0622 o
grestore
gsave
/o {
gsave
newpath
translate
0.5 setlinewidth
1 setlinejoin
0 setlinecap
0 0 m
0 2 l
gsave
0.000 setgray
fill
grestore
stroke
grestore
} bind def
440.917 82.0622 o
grestore
gsave
/o {
gsave
newpath
translate
0.5 setlinewidth
1 setlinejoin
0 setlinecap
0 0 m
0 2 l
gsave
0.000 setgray
fill
grestore
stroke
grestore
} bind def
467.363 82.0622 o
grestore
gsave
/o {
gsave
newpath
translate
0.5 setlinewidth
1 setlinejoin
0 setlinecap
0 0 m
0 2 l
gsave
0.000 setgray
fill
grestore
stroke
grestore
} bind def
493.809 82.0622 o
grestore
gsave
/o {
gsave
newpath
translate
0.5 setlinewidth
1 setlinejoin
0 setlinecap
0 0 m
0 2 l
gsave
0.000 setgray
fill
grestore
stroke
grestore
} bind def
520.255 82.0622 o
grestore
gsave
/o {
gsave
newpath
translate
0.5 setlinewidth
1 setlinejoin
0 setlinecap
0 0 m
4 0 l
gsave
0.000 setgray
fill
grestore
stroke
grestore
} bind def
282.24 16.8391 o
grestore
gsave
260.083750 14.081278 translate
0.000000 rotate
0.000000 0.000000 m /hyphen glyphshow
3.608398 0.000000 m /zero glyphshow
9.970703 0.000000 m /period glyphshow
13.149414 0.000000 m /five glyphshow
grestore
gsave
/o {
gsave
newpath
translate
0.5 setlinewidth
1 setlinejoin
0 setlinecap
0 0 m
4 0 l
gsave
0.000 setgray
fill
grestore
stroke
grestore
} bind def
282.24 82.0622 o
grestore
gsave
/o {
gsave
newpath
translate
0.5 setlinewidth
1 setlinejoin
0 setlinecap
0 0 m
4 0 l
gsave
0.000 setgray
fill
grestore
stroke
grestore
} bind def
282.24 147.285 o
grestore
gsave
263.865000 144.527484 translate
0.000000 rotate
0.000000 0.000000 m /zero glyphshow
6.362305 0.000000 m /period glyphshow
9.541016 0.000000 m /five glyphshow
grestore
gsave
/o {
gsave
newpath
translate
0.5 setlinewidth
1 setlinejoin
0 setlinecap
0 0 m
4 0 l
gsave
0.000 setgray
fill
grestore
stroke
grestore
} bind def
282.24 212.508 o
grestore
gsave
273.896250 209.750587 translate
0.000000 rotate
0.000000 0.000000 m /one glyphshow
grestore
gsave
/o {
gsave
newpath
translate
0.5 setlinewidth
1 setlinejoin
0 setlinecap
0 0 m
4 0 l
gsave
0.000 setgray
fill
grestore
stroke
grestore
} bind def
282.24 277.732 o
grestore
gsave
264.302500 274.973690 translate
0.000000 rotate
0.000000 0.000000 m /one glyphshow
6.362305 0.000000 m /period glyphshow
9.541016 0.000000 m /five glyphshow
grestore
gsave
/o {
gsave
newpath
translate
0.5 setlinewidth
1 setlinejoin
0 setlinecap
0 0 m
4 0 l
gsave
0.000 setgray
fill
grestore
stroke
grestore
} bind def
282.24 342.955 o
grestore
gsave
273.615000 340.196793 translate
0.000000 rotate
0.000000 0.000000 m /two glyphshow
grestore
gsave
/o {
gsave
newpath
translate
0.5 setlinewidth
1 setlinejoin
0 setlinecap
0 0 m
4 0 l
gsave
0.000 setgray
fill
grestore
stroke
grestore
} bind def
282.24 408.178 o
grestore
gsave
263.943125 405.419896 translate
0.000000 rotate
0.000000 0.000000 m /two glyphshow
6.362305 0.000000 m /period glyphshow
9.541016 0.000000 m /five glyphshow
grestore
gsave
/o {
gsave
newpath
translate
0.5 setlinewidth
1 setlinejoin
0 setlinecap
0 0 m
2 0 l
gsave
0.000 setgray
fill
grestore
stroke
grestore
} bind def
282.24 29.8837 o
grestore
gsave
/o {
gsave
newpath
translate
0.5 setlinewidth
1 setlinejoin
0 setlinecap
0 0 m
2 0 l
gsave
0.000 setgray
fill
grestore
stroke
grestore
} bind def
282.24 42.9283 o
grestore
gsave
/o {
gsave
newpath
translate
0.5 setlinewidth
1 setlinejoin
0 setlinecap
0 0 m
2 0 l
gsave
0.000 setgray
fill
grestore
stroke
grestore
} bind def
282.24 55.973 o
grestore
gsave
/o {
gsave
newpath
translate
0.5 setlinewidth
1 setlinejoin
0 setlinecap
0 0 m
2 0 l
gsave
0.000 setgray
fill
grestore
stroke
grestore
} bind def
282.24 69.0176 o
grestore
gsave
/o {
gsave
newpath
translate
0.5 setlinewidth
1 setlinejoin
0 setlinecap
0 0 m
2 0 l
gsave
0.000 setgray
fill
grestore
stroke
grestore
} bind def
282.24 82.0622 o
grestore
gsave
/o {
gsave
newpath
translate
0.5 setlinewidth
1 setlinejoin
0 setlinecap
0 0 m
2 0 l
gsave
0.000 setgray
fill
grestore
stroke
grestore
} bind def
282.24 95.1068 o
grestore
gsave
/o {
gsave
newpath
translate
0.5 setlinewidth
1 setlinejoin
0 setlinecap
0 0 m
2 0 l
gsave
0.000 setgray
fill
grestore
stroke
grestore
} bind def
282.24 108.151 o
grestore
gsave
/o {
gsave
newpath
translate
0.5 setlinewidth
1 setlinejoin
0 setlinecap
0 0 m
2 0 l
gsave
0.000 setgray
fill
grestore
stroke
grestore
} bind def
282.24 121.196 o
grestore
gsave
/o {
gsave
newpath
translate
0.5 setlinewidth
1 setlinejoin
0 setlinecap
0 0 m
2 0 l
gsave
0.000 setgray
fill
grestore
stroke
grestore
} bind def
282.24 134.241 o
grestore
gsave
/o {
gsave
newpath
translate
0.5 setlinewidth
1 setlinejoin
0 setlinecap
0 0 m
2 0 l
gsave
0.000 setgray
fill
grestore
stroke
grestore
} bind def
282.24 147.285 o
grestore
gsave
/o {
gsave
newpath
translate
0.5 setlinewidth
1 setlinejoin
0 setlinecap
0 0 m
2 0 l
gsave
0.000 setgray
fill
grestore
stroke
grestore
} bind def
282.24 160.33 o
grestore
gsave
/o {
gsave
newpath
translate
0.5 setlinewidth
1 setlinejoin
0 setlinecap
0 0 m
2 0 l
gsave
0.000 setgray
fill
grestore
stroke
grestore
} bind def
282.24 173.375 o
grestore
gsave
/o {
gsave
newpath
translate
0.5 setlinewidth
1 setlinejoin
0 setlinecap
0 0 m
2 0 l
gsave
0.000 setgray
fill
grestore
stroke
grestore
} bind def
282.24 186.419 o
grestore
gsave
/o {
gsave
newpath
translate
0.5 setlinewidth
1 setlinejoin
0 setlinecap
0 0 m
2 0 l
gsave
0.000 setgray
fill
grestore
stroke
grestore
} bind def
282.24 199.464 o
grestore
gsave
/o {
gsave
newpath
translate
0.5 setlinewidth
1 setlinejoin
0 setlinecap
0 0 m
2 0 l
gsave
0.000 setgray
fill
grestore
stroke
grestore
} bind def
282.24 212.508 o
grestore
gsave
/o {
gsave
newpath
translate
0.5 setlinewidth
1 setlinejoin
0 setlinecap
0 0 m
2 0 l
gsave
0.000 setgray
fill
grestore
stroke
grestore
} bind def
282.24 225.553 o
grestore
gsave
/o {
gsave
newpath
translate
0.5 setlinewidth
1 setlinejoin
0 setlinecap
0 0 m
2 0 l
gsave
0.000 setgray
fill
grestore
stroke
grestore
} bind def
282.24 238.598 o
grestore
gsave
/o {
gsave
newpath
translate
0.5 setlinewidth
1 setlinejoin
0 setlinecap
0 0 m
2 0 l
gsave
0.000 setgray
fill
grestore
stroke
grestore
} bind def
282.24 251.642 o
grestore
gsave
/o {
gsave
newpath
translate
0.5 setlinewidth
1 setlinejoin
0 setlinecap
0 0 m
2 0 l
gsave
0.000 setgray
fill
grestore
stroke
grestore
} bind def
282.24 264.687 o
grestore
gsave
/o {
gsave
newpath
translate
0.5 setlinewidth
1 setlinejoin
0 setlinecap
0 0 m
2 0 l
gsave
0.000 setgray
fill
grestore
stroke
grestore
} bind def
282.24 277.732 o
grestore
gsave
/o {
gsave
newpath
translate
0.5 setlinewidth
1 setlinejoin
0 setlinecap
0 0 m
2 0 l
gsave
0.000 setgray
fill
grestore
stroke
grestore
} bind def
282.24 290.776 o
grestore
gsave
/o {
gsave
newpath
translate
0.5 setlinewidth
1 setlinejoin
0 setlinecap
0 0 m
2 0 l
gsave
0.000 setgray
fill
grestore
stroke
grestore
} bind def
282.24 303.821 o
grestore
gsave
/o {
gsave
newpath
translate
0.5 setlinewidth
1 setlinejoin
0 setlinecap
0 0 m
2 0 l
gsave
0.000 setgray
fill
grestore
stroke
grestore
} bind def
282.24 316.865 o
grestore
gsave
/o {
gsave
newpath
translate
0.5 setlinewidth
1 setlinejoin
0 setlinecap
0 0 m
2 0 l
gsave
0.000 setgray
fill
grestore
stroke
grestore
} bind def
282.24 329.91 o
grestore
gsave
/o {
gsave
newpath
translate
0.5 setlinewidth
1 setlinejoin
0 setlinecap
0 0 m
2 0 l
gsave
0.000 setgray
fill
grestore
stroke
grestore
} bind def
282.24 342.955 o
grestore
gsave
/o {
gsave
newpath
translate
0.5 setlinewidth
1 setlinejoin
0 setlinecap
0 0 m
2 0 l
gsave
0.000 setgray
fill
grestore
stroke
grestore
} bind def
282.24 355.999 o
grestore
gsave
/o {
gsave
newpath
translate
0.5 setlinewidth
1 setlinejoin
0 setlinecap
0 0 m
2 0 l
gsave
0.000 setgray
fill
grestore
stroke
grestore
} bind def
282.24 369.044 o
grestore
gsave
/o {
gsave
newpath
translate
0.5 setlinewidth
1 setlinejoin
0 setlinecap
0 0 m
2 0 l
gsave
0.000 setgray
fill
grestore
stroke
grestore
} bind def
282.24 382.088 o
grestore
gsave
/o {
gsave
newpath
translate
0.5 setlinewidth
1 setlinejoin
0 setlinecap
0 0 m
2 0 l
gsave
0.000 setgray
fill
grestore
stroke
grestore
} bind def
282.24 395.133 o
grestore
0.800 setlinewidth
gsave
7.2 82.0622 m
557.28 82.0622 l
stroke
grestore
gsave
282.24 7.2 m
282.24 412.28 l
stroke
grestore

end
showpage
